<?xml version="1.0" encoding="utf-8"?>
<svg version="1.1" id="Layer_1" xmlns="http://www.w3.org/2000/svg" xmlns:xlink="http://www.w3.org/1999/xlink" x="0px" y="0px"
	 viewBox="0 0 48 48" style="enable-background:new 0 0 48 48;" xml:space="preserve">
<path
   d="m 0,29.221078 c 0,-2.6564 0.8315688,-5.012512 2.4947064,-7.091434 1.6631377,-2.078922 3.7651589,-3.418672 6.3291627,-3.99615 C 9.5399422,14.968912 11.179981,12.381809 13.697786,10.349086 16.215592,8.3163619 19.126083,7.3 22.383061,7.3 c 3.18768,0 6.028874,0.9932627 8.52358,2.956689 2.494706,1.963426 4.111646,4.504331 4.850818,7.599615 h 0.762272 c 2.078922,0 3.99615,0.508181 5.751684,1.501444 1.755534,0.993263 3.164581,2.379211 4.180943,4.134745 C 47.46872,25.248027 48,27.142156 48,29.221078 c 0,2.032724 -0.485082,3.926853 -1.455245,5.659288 -0.970164,1.732435 -2.309914,3.118383 -3.996151,4.157844 -1.686236,1.039461 -3.557266,1.59384 -5.566891,1.663138 H 11.087584 C 7.9923003,40.562753 5.3820982,39.384697 3.2338787,37.16718 1.0856593,34.972763 0,32.316362 0,29.221078 Z m 3.9499519,0 c 0,2.009625 0.692974,3.74206 2.078922,5.220404 1.385948,1.478345 3.0721848,2.263716 5.0587101,2.379211 h 25.847931 c 1.986525,-0.0924 3.672762,-0.900866 5.05871,-2.379211 1.409047,-1.478344 2.102021,-3.233878 2.102021,-5.220404 0,-2.032724 -0.762271,-3.765159 -2.263715,-5.243503 -1.501443,-1.478345 -3.280077,-2.217517 -5.358999,-2.217517 h -3.695861 c -0.254091,0 -0.392685,-0.138595 -0.392685,-0.415784 l -0.161694,-1.316651 c -0.254091,-2.494707 -1.33975,-4.596728 -3.233879,-6.282965 -1.894129,-1.686236 -4.088547,-2.540904 -6.606352,-2.540904 -2.517806,0 -4.735323,0.854668 -6.583253,2.540904 -1.87103,1.686237 -2.933591,3.788258 -3.164582,6.282965 l -0.184793,1.316651 c 0,0.277189 -0.161694,0.415784 -0.461983,0.415784 h -1.224254 c -1.9403269,0.230991 -3.5572663,1.06256 -4.8508178,2.471607 -1.2935514,1.409047 -1.9634263,3.072185 -1.9634263,4.989413 z"
   id="path2"
   style="stroke-width:2.30991" />
</svg>
