<?xml version="1.0" encoding="utf-8"?>
<svg version="1.1" id="Layer_1" xmlns="http://www.w3.org/2000/svg" xmlns:xlink="http://www.w3.org/1999/xlink" x="0px" y="0px"
	 viewBox="0 0 48 48" style="enable-background:new 0 0 48 48;" xml:space="preserve">
<path
   d="M 0,24.021295 C 0,20.763088 0.6388642,17.632653 1.8952972,14.672582 3.1517303,11.712511 4.8766637,9.1570541 7.0062112,7.0062112 9.1357587,4.8553682 11.691216,3.1517303 14.672582,1.8952972 17.653948,0.6388642 20.741792,0 23.978705,0 c 3.258207,0 6.388642,0.6388642 9.348713,1.8952972 2.960071,1.2564331 5.515528,2.9813665 7.666371,5.110914 2.150843,2.1295475 3.854481,4.6850048 5.110914,7.6663708 C 47.361136,17.653948 48,20.741792 48,24.021295 c 0,3.236913 -0.638864,6.346052 -1.895297,9.306123 -1.256433,2.960071 -2.981367,5.515528 -5.110914,7.666371 -2.129548,2.150843 -4.685005,3.854481 -7.666371,5.110914 C 30.346051,47.361136 27.258208,48 23.978705,48 20.741792,48 17.632653,47.361136 14.672582,46.104703 11.712511,44.84827 9.1570541,43.123336 7.0062112,40.993789 4.8553682,38.864241 3.1517303,36.308784 1.8952972,33.327418 0.6388642,30.346051 0,27.279503 0,24.021295 Z m 2.555457,0 c 0,2.896185 0.5749778,5.664597 1.7036379,8.305236 1.1286602,2.640638 2.6619344,4.94055 4.5785271,6.857142 1.916593,1.916593 4.195208,3.428572 6.857143,4.578528 2.661934,1.149955 5.430346,1.703638 8.305235,1.703638 2.91748,0 5.685892,-0.574978 8.326531,-1.703638 2.640638,-1.128661 4.919254,-2.661935 6.857142,-4.578528 1.937889,-1.916592 3.449867,-4.195208 4.578528,-6.857142 1.12866,-2.661935 1.703638,-5.430346 1.703638,-8.305236 0,-3.875776 -0.958297,-7.453416 -2.87489,-10.754214 C 40.674357,9.9662822 38.055013,7.3682343 34.754215,5.4303461 31.453416,3.4924579 27.875776,2.555457 24,2.555457 c -2.896185,0 -5.664596,0.5749778 -8.305235,1.7036379 C 13.054126,5.3877551 10.754215,6.9210293 8.837622,8.8589175 6.9210293,10.796806 5.4090506,13.075422 4.2590949,15.71606 3.1091393,18.356699 2.555457,21.125111 2.555457,24.021295 Z"
   id="path124"
   style="stroke-width:2.12955" />
</svg>
