<?xml version="1.0" encoding="utf-8"?>
<svg version="1.1" id="Layer_1" xmlns="http://www.w3.org/2000/svg" xmlns:xlink="http://www.w3.org/1999/xlink" x="0px" y="0px"
	 viewBox="0 0 48 48" style="enable-background:new 0 0 48 48;" xml:space="preserve">
<path
   d="M 0,29.623 C 0,29.133204 0.1959184,28.682592 0.5877551,28.271163 1.0187755,27.898919 1.4889796,27.703 1.9591837,27.703 h 4.5648979 c 0.5289796,0 0.96,0.195919 1.3126531,0.568163 0.3526531,0.372245 0.5289796,0.842449 0.5289796,1.351837 0,0.568163 -0.1763265,1.038367 -0.5289796,1.410612 -0.3526531,0.372245 -0.8032653,0.568164 -1.3126531,0.568164 H 1.9591837 c -0.5289796,0 -0.9795919,-0.195919 -1.3714286,-0.587755 C 0.1959184,30.602592 0,30.132388 0,29.623 Z M 6.5240816,13.988714 c 0,-0.528979 0.1763266,-0.979591 0.5093878,-1.332245 0.4506122,-0.391836 0.9012245,-0.587755 1.3910204,-0.587755 0.5093878,0 0.96,0.195919 1.3322449,0.568164 l 3.2130613,3.232653 c 0.372245,0.43102 0.548571,0.881632 0.548571,1.351836 0,0.548572 -0.176326,1.018776 -0.528979,1.371429 -0.352653,0.352653 -0.783674,0.548571 -1.293061,0.548571 -0.470205,0 -0.940409,-0.195918 -1.371429,-0.568163 L 7.0334694,15.418918 C 6.7004082,15.00749 6.5240816,14.517694 6.5240816,13.988714 Z m 3.9183674,26.44898 c 0,-0.548571 0.195918,-0.999184 0.568163,-1.332245 0.352653,-0.333061 0.783674,-0.509388 1.332245,-0.509388 h 5.152653 l 6.093061,-5.720816 c 0.195919,-0.156735 0.411429,-0.156735 0.666123,0 l 6.19102,5.720816 h 5.426939 c 0.52898,0 0.979592,0.176327 1.351837,0.548572 0.372245,0.352653 0.568163,0.803265 0.568163,1.312653 0,0.528979 -0.195918,0.979592 -0.568163,1.351837 -0.372245,0.372244 -0.822857,0.568163 -1.351837,0.568163 h -6.622041 c -0.195918,0 -0.391836,-0.03918 -0.568163,-0.137143 l -4.721633,-4.447347 -4.682449,4.447347 c -0.156734,0.09796 -0.333061,0.137143 -0.548571,0.137143 h -6.386939 c -0.528979,0 -0.979592,-0.195919 -1.351837,-0.568163 -0.372244,-0.391837 -0.548571,-0.842449 -0.548571,-1.371429 z M 12.244898,29.623 c 0,1.900408 0.411429,3.62449 1.214694,5.172245 0.03918,0.235102 0.21551,0.352653 0.489796,0.352653 h 3.683265 c 0.137143,0 0.235102,-0.05877 0.293878,-0.156735 0.05878,-0.117551 0.03918,-0.235102 -0.03918,-0.372244 C 16.633469,33.110347 16.00653,31.445041 16.00653,29.623 c 0,-2.194286 0.783674,-4.075102 2.351021,-5.622857 1.567347,-1.547755 3.448163,-2.311837 5.662041,-2.311837 2.194286,0 4.05551,0.764082 5.603265,2.311837 1.547755,1.547755 2.331429,3.40898 2.331429,5.622857 0,1.841633 -0.626939,3.506939 -1.861225,4.995919 -0.07837,0.137142 -0.09796,0.254693 -0.05877,0.372244 0.03918,0.117551 0.137143,0.156735 0.293877,0.156735 h 3.722449 c 0.254694,0 0.411429,-0.117551 0.450612,-0.352653 0.862041,-1.508571 1.253878,-3.232653 1.253878,-5.172245 0,-1.586939 -0.313469,-3.115102 -0.940408,-4.545306 -0.626944,-1.449796 -1.469393,-2.684082 -2.50776,-3.742041 -1.038368,-1.038367 -2.292245,-1.880816 -3.742041,-2.507755 -1.449796,-0.626939 -2.958367,-0.920816 -4.545306,-0.920816 -1.586939,0 -3.115102,0.313469 -4.564898,0.920816 -1.449796,0.626939 -2.703674,1.449796 -3.761633,2.507755 -1.057959,1.038368 -1.900408,2.292245 -2.527347,3.742041 -0.607347,1.430204 -0.920816,2.938776 -0.920816,4.545306 z M 22.099592,12.068714 V 7.5625919 c 0,-0.5681633 0.176326,-1.0187755 0.548571,-1.3910204 C 23.020408,5.7993266 23.490612,5.623 24.039184,5.623 c 0.548571,0 0.999183,0.1763266 1.371428,0.5485715 0.372245,0.3722449 0.548572,0.8620408 0.548572,1.4106122 v 4.5061223 c 0,0.568163 -0.176327,1.018776 -0.548572,1.391021 -0.352653,0.352653 -0.822857,0.548571 -1.371428,0.548571 -0.568164,0 -1.018776,-0.176326 -1.391021,-0.548571 -0.372245,-0.372245 -0.548571,-0.842449 -0.548571,-1.410613 z m 12.440816,5.172245 c 0,-0.489796 0.176327,-0.940408 0.52898,-1.351837 l 3.173877,-3.232653 c 0.372245,-0.372244 0.842449,-0.568163 1.371429,-0.568163 0.528979,0 0.999184,0.195919 1.351837,0.568163 0.372245,0.372245 0.548571,0.822858 0.548571,1.351837 0,0.568163 -0.176326,1.038368 -0.509388,1.430204 l -3.291428,3.154286 c -0.411429,0.372245 -0.881633,0.568163 -1.371429,0.568163 -0.528979,0 -0.96,-0.176326 -1.293061,-0.548571 -0.333061,-0.372245 -0.509388,-0.822857 -0.509388,-1.371429 z M 39.653878,29.623 c 0,-0.528979 0.176326,-0.979592 0.528979,-1.351837 C 40.53551,27.898919 40.966531,27.703 41.475918,27.703 H 46.08 c 0.52898,0 0.979592,0.195919 1.351837,0.568163 C 47.804082,28.643408 48,29.113612 48,29.623 c 0,0.548572 -0.195918,0.999184 -0.568163,1.391021 -0.372245,0.391836 -0.822857,0.587755 -1.351837,0.587755 h -4.604082 c -0.528979,0 -0.96,-0.195919 -1.312653,-0.568164 -0.333061,-0.391836 -0.509387,-0.86204 -0.509387,-1.410612 z"
   id="path441"
   style="stroke-width:1.95918" />
</svg>
